MPFS_Fabric_access/LED_Switch_with_Logic_Analyzer/synthesis/axi_debug/IICE.vcd
$date
Thu Jul 25 11:51:18 2024
$end
$version
Identify 1.1
$end
$timescale
1 ns
$end
$comment
Written by QT debugger
$end
$scope module top $end
$var integer 32 cyc identify_cycle       $end
$var reg     1  clk identify_sampleclock $end
$scope module master $end
$var reg 1 A outValid $end
$var reg 2 B dataOut [1:0] $end
$var reg 1 C ready $end
$upscope $end
$upscope $end
$enddefinitions $end
#0
1clk
b11111111111111111111111100000010 cyc
1A
b01 B
1C
#10
0clk
#20
1clk
b11111111111111111111111100000011 cyc
#30
0clk
#40
1clk
b11111111111111111111111100000100 cyc
#50
0clk
#60
1clk
b11111111111111111111111100000101 cyc
#70
0clk
#80
1clk
b11111111111111111111111100000110 cyc
#90
0clk
#100
1clk
b11111111111111111111111100000111 cyc
#110
0clk
#120
1clk
b11111111111111111111111100001000 cyc
#130
0clk
#140
1clk
b11111111111111111111111100001001 cyc
#150
0clk
#160
1clk
b11111111111111111111111100001010 cyc
#170
0clk
#180
1clk
b11111111111111111111111100001011 cyc
#190
0clk
#200
1clk
b11111111111111111111111100001100 cyc
#210
0clk
#220
1clk
b11111111111111111111111100001101 cyc
#230
0clk
#240
1clk
b11111111111111111111111100001110 cyc
#250
0clk
#260
1clk
b11111111111111111111111100001111 cyc
#270
0clk
#280
1clk
b11111111111111111111111100010000 cyc
#290
0clk
#300
1clk
b11111111111111111111111100010001 cyc
#310
0clk
#320
1clk
b11111111111111111111111100010010 cyc
#330
0clk
#340
1clk
b11111111111111111111111100010011 cyc
#350
0clk
#360
1clk
b11111111111111111111111100010100 cyc
#370
0clk
#380
1clk
b11111111111111111111111100010101 cyc
#390
0clk
#400
1clk
b11111111111111111111111100010110 cyc
#410
0clk
#420
1clk
b11111111111111111111111100010111 cyc
#430
0clk
#440
1clk
b11111111111111111111111100011000 cyc
#450
0clk
#460
1clk
b11111111111111111111111100011001 cyc
#470
0clk
#480
1clk
b11111111111111111111111100011010 cyc
#490
0clk
#500
1clk
b11111111111111111111111100011011 cyc
#510
0clk
#520
1clk
b11111111111111111111111100011100 cyc
#530
0clk
#540
1clk
b11111111111111111111111100011101 cyc
#550
0clk
#560
1clk
b11111111111111111111111100011110 cyc
#570
0clk
#580
1clk
b11111111111111111111111100011111 cyc
#590
0clk
#600
1clk
b11111111111111111111111100100000 cyc
#610
0clk
#620
1clk
b11111111111111111111111100100001 cyc
#630
0clk
#640
1clk
b11111111111111111111111100100010 cyc
#650
0clk
#660
1clk
b11111111111111111111111100100011 cyc
#670
0clk
#680
1clk
b11111111111111111111111100100100 cyc
#690
0clk
#700
1clk
b11111111111111111111111100100101 cyc
#710
0clk
#720
1clk
b11111111111111111111111100100110 cyc
#730
0clk
#740
1clk
b11111111111111111111111100100111 cyc
#750
0clk
#760
1clk
b11111111111111111111111100101000 cyc
#770
0clk
#780
1clk
b11111111111111111111111100101001 cyc
#790
0clk
#800
1clk
b11111111111111111111111100101010 cyc
#810
0clk
#820
1clk
b11111111111111111111111100101011 cyc
#830
0clk
#840
1clk
b11111111111111111111111100101100 cyc
#850
0clk
#860
1clk
b11111111111111111111111100101101 cyc
#870
0clk
#880
1clk
b11111111111111111111111100101110 cyc
#890
0clk
#900
1clk
b11111111111111111111111100101111 cyc
#910
0clk
#920
1clk
b11111111111111111111111100110000 cyc
#930
0clk
#940
1clk
b11111111111111111111111100110001 cyc
#950
0clk
#960
1clk
b11111111111111111111111100110010 cyc
#970
0clk
#980
1clk
b11111111111111111111111100110011 cyc
#990
0clk
#1000
1clk
b11111111111111111111111100110100 cyc
#1010
0clk
#1020
1clk
b11111111111111111111111100110101 cyc
#1030
0clk
#1040
1clk
b11111111111111111111111100110110 cyc
#1050
0clk
#1060
1clk
b11111111111111111111111100110111 cyc
#1070
0clk
#1080
1clk
b11111111111111111111111100111000 cyc
#1090
0clk
#1100
1clk
b11111111111111111111111100111001 cyc
#1110
0clk
#1120
1clk
b11111111111111111111111100111010 cyc
#1130
0clk
#1140
1clk
b11111111111111111111111100111011 cyc
#1150
0clk
#1160
1clk
b11111111111111111111111100111100 cyc
#1170
0clk
#1180
1clk
b11111111111111111111111100111101 cyc
#1190
0clk
#1200
1clk
b11111111111111111111111100111110 cyc
#1210
0clk
#1220
1clk
b11111111111111111111111100111111 cyc
#1230
0clk
#1240
1clk
b11111111111111111111111101000000 cyc
#1250
0clk
#1260
1clk
b11111111111111111111111101000001 cyc
#1270
0clk
#1280
1clk
b11111111111111111111111101000010 cyc
#1290
0clk
#1300
1clk
b11111111111111111111111101000011 cyc
#1310
0clk
#1320
1clk
b11111111111111111111111101000100 cyc
#1330
0clk
#1340
1clk
b11111111111111111111111101000101 cyc
#1350
0clk
#1360
1clk
b11111111111111111111111101000110 cyc
#1370
0clk
#1380
1clk
b11111111111111111111111101000111 cyc
#1390
0clk
#1400
1clk
b11111111111111111111111101001000 cyc
#1410
0clk
#1420
1clk
b11111111111111111111111101001001 cyc
#1430
0clk
#1440
1clk
b11111111111111111111111101001010 cyc
#1450
0clk
#1460
1clk
b11111111111111111111111101001011 cyc
#1470
0clk
#1480
1clk
b11111111111111111111111101001100 cyc
#1490
0clk
#1500
1clk
b11111111111111111111111101001101 cyc
#1510
0clk
#1520
1clk
b11111111111111111111111101001110 cyc
#1530
0clk
#1540
1clk
b11111111111111111111111101001111 cyc
#1550
0clk
#1560
1clk
b11111111111111111111111101010000 cyc
#1570
0clk
#1580
1clk
b11111111111111111111111101010001 cyc
#1590
0clk
#1600
1clk
b11111111111111111111111101010010 cyc
#1610
0clk
#1620
1clk
b11111111111111111111111101010011 cyc
#1630
0clk
#1640
1clk
b11111111111111111111111101010100 cyc
#1650
0clk
#1660
1clk
b11111111111111111111111101010101 cyc
#1670
0clk
#1680
1clk
b11111111111111111111111101010110 cyc
#1690
0clk
#1700
1clk
b11111111111111111111111101010111 cyc
#1710
0clk
#1720
1clk
b11111111111111111111111101011000 cyc
#1730
0clk
#1740
1clk
b11111111111111111111111101011001 cyc
#1750
0clk
#1760
1clk
b11111111111111111111111101011010 cyc
#1770
0clk
#1780
1clk
b11111111111111111111111101011011 cyc
#1790
0clk
#1800
1clk
b11111111111111111111111101011100 cyc
#1810
0clk
#1820
1clk
b11111111111111111111111101011101 cyc
#1830
0clk
#1840
1clk
b11111111111111111111111101011110 cyc
#1850
0clk
#1860
1clk
b11111111111111111111111101011111 cyc
#1870
0clk
#1880
1clk
b11111111111111111111111101100000 cyc
#1890
0clk
#1900
1clk
b11111111111111111111111101100001 cyc
#1910
0clk
#1920
1clk
b11111111111111111111111101100010 cyc
#1930
0clk
#1940
1clk
b11111111111111111111111101100011 cyc
#1950
0clk
#1960
1clk
b11111111111111111111111101100100 cyc
#1970
0clk
#1980
1clk
b11111111111111111111111101100101 cyc
#1990
0clk
#2000
1clk
b11111111111111111111111101100110 cyc
#2010
0clk
#2020
1clk
b11111111111111111111111101100111 cyc
#2030
0clk
#2040
1clk
b11111111111111111111111101101000 cyc
#2050
0clk
#2060
1clk
b11111111111111111111111101101001 cyc
#2070
0clk
#2080
1clk
b11111111111111111111111101101010 cyc
#2090
0clk
#2100
1clk
b11111111111111111111111101101011 cyc
#2110
0clk
#2120
1clk
b11111111111111111111111101101100 cyc
#2130
0clk
#2140
1clk
b11111111111111111111111101101101 cyc
#2150
0clk
#2160
1clk
b11111111111111111111111101101110 cyc
#2170
0clk
#2180
1clk
b11111111111111111111111101101111 cyc
#2190
0clk
#2200
1clk
b11111111111111111111111101110000 cyc
#2210
0clk
#2220
1clk
b11111111111111111111111101110001 cyc
#2230
0clk
#2240
1clk
b11111111111111111111111101110010 cyc
#2250
0clk
#2260
1clk
b11111111111111111111111101110011 cyc
#2270
0clk
#2280
1clk
b11111111111111111111111101110100 cyc
#2290
0clk
#2300
1clk
b11111111111111111111111101110101 cyc
#2310
0clk
#2320
1clk
b11111111111111111111111101110110 cyc
#2330
0clk
#2340
1clk
b11111111111111111111111101110111 cyc
#2350
0clk
#2360
1clk
b11111111111111111111111101111000 cyc
#2370
0clk
#2380
1clk
b11111111111111111111111101111001 cyc
#2390
0clk
#2400
1clk
b11111111111111111111111101111010 cyc
#2410
0clk
#2420
1clk
b11111111111111111111111101111011 cyc
#2430
0clk
#2440
1clk
b11111111111111111111111101111100 cyc
#2450
0clk
#2460
1clk
b11111111111111111111111101111101 cyc
#2470
0clk
#2480
1clk
b11111111111111111111111101111110 cyc
#2490
0clk
#2500
1clk
b11111111111111111111111101111111 cyc
#2510
0clk
#2520
1clk
b11111111111111111111111110000000 cyc
#2530
0clk
#2540
1clk
b11111111111111111111111110000001 cyc
#2550
0clk
#2560
1clk
b11111111111111111111111110000010 cyc
#2570
0clk
#2580
1clk
b11111111111111111111111110000011 cyc
#2590
0clk
#2600
1clk
b11111111111111111111111110000100 cyc
#2610
0clk
#2620
1clk
b11111111111111111111111110000101 cyc
#2630
0clk
#2640
1clk
b11111111111111111111111110000110 cyc
#2650
0clk
#2660
1clk
b11111111111111111111111110000111 cyc
#2670
0clk
#2680
1clk
b11111111111111111111111110001000 cyc
#2690
0clk
#2700
1clk
b11111111111111111111111110001001 cyc
#2710
0clk
#2720
1clk
b11111111111111111111111110001010 cyc
#2730
0clk
#2740
1clk
b11111111111111111111111110001011 cyc
#2750
0clk
#2760
1clk
b11111111111111111111111110001100 cyc
#2770
0clk
#2780
1clk
b11111111111111111111111110001101 cyc
#2790
0clk
#2800
1clk
b11111111111111111111111110001110 cyc
#2810
0clk
#2820
1clk
b11111111111111111111111110001111 cyc
#2830
0clk
#2840
1clk
b11111111111111111111111110010000 cyc
#2850
0clk
#2860
1clk
b11111111111111111111111110010001 cyc
#2870
0clk
#2880
1clk
b11111111111111111111111110010010 cyc
#2890
0clk
#2900
1clk
b11111111111111111111111110010011 cyc
#2910
0clk
#2920
1clk
b11111111111111111111111110010100 cyc
#2930
0clk
#2940
1clk
b11111111111111111111111110010101 cyc
#2950
0clk
#2960
1clk
b11111111111111111111111110010110 cyc
#2970
0clk
#2980
1clk
b11111111111111111111111110010111 cyc
#2990
0clk
#3000
1clk
b11111111111111111111111110011000 cyc
#3010
0clk
#3020
1clk
b11111111111111111111111110011001 cyc
#3030
0clk
#3040
1clk
b11111111111111111111111110011010 cyc
#3050
0clk
#3060
1clk
b11111111111111111111111110011011 cyc
#3070
0clk
#3080
1clk
b11111111111111111111111110011100 cyc
#3090
0clk
#3100
1clk
b11111111111111111111111110011101 cyc
#3110
0clk
#3120
1clk
b11111111111111111111111110011110 cyc
#3130
0clk
#3140
1clk
b11111111111111111111111110011111 cyc
#3150
0clk
#3160
1clk
b11111111111111111111111110100000 cyc
#3170
0clk
#3180
1clk
b11111111111111111111111110100001 cyc
#3190
0clk
#3200
1clk
b11111111111111111111111110100010 cyc
#3210
0clk
#3220
1clk
b11111111111111111111111110100011 cyc
#3230
0clk
#3240
1clk
b11111111111111111111111110100100 cyc
#3250
0clk
#3260
1clk
b11111111111111111111111110100101 cyc
#3270
0clk
#3280
1clk
b11111111111111111111111110100110 cyc
#3290
0clk
#3300
1clk
b11111111111111111111111110100111 cyc
#3310
0clk
#3320
1clk
b11111111111111111111111110101000 cyc
#3330
0clk
#3340
1clk
b11111111111111111111111110101001 cyc
#3350
0clk
#3360
1clk
b11111111111111111111111110101010 cyc
#3370
0clk
#3380
1clk
b11111111111111111111111110101011 cyc
#3390
0clk
#3400
1clk
b11111111111111111111111110101100 cyc
#3410
0clk
#3420
1clk
b11111111111111111111111110101101 cyc
#3430
0clk
#3440
1clk
b11111111111111111111111110101110 cyc
#3450
0clk
#3460
1clk
b11111111111111111111111110101111 cyc
#3470
0clk
#3480
1clk
b11111111111111111111111110110000 cyc
#3490
0clk
#3500
1clk
b11111111111111111111111110110001 cyc
#3510
0clk
#3520
1clk
b11111111111111111111111110110010 cyc
#3530
0clk
#3540
1clk
b11111111111111111111111110110011 cyc
#3550
0clk
#3560
1clk
b11111111111111111111111110110100 cyc
#3570
0clk
#3580
1clk
b11111111111111111111111110110101 cyc
#3590
0clk
#3600
1clk
b11111111111111111111111110110110 cyc
#3610
0clk
#3620
1clk
b11111111111111111111111110110111 cyc
#3630
0clk
#3640
1clk
b11111111111111111111111110111000 cyc
#3650
0clk
#3660
1clk
b11111111111111111111111110111001 cyc
#3670
0clk
#3680
1clk
b11111111111111111111111110111010 cyc
#3690
0clk
#3700
1clk
b11111111111111111111111110111011 cyc
#3710
0clk
#3720
1clk
b11111111111111111111111110111100 cyc
#3730
0clk
#3740
1clk
b11111111111111111111111110111101 cyc
#3750
0clk
#3760
1clk
b11111111111111111111111110111110 cyc
#3770
0clk
#3780
1clk
b11111111111111111111111110111111 cyc
#3790
0clk
#3800
1clk
b11111111111111111111111111000000 cyc
#3810
0clk
#3820
1clk
b11111111111111111111111111000001 cyc
#3830
0clk
#3840
1clk
b11111111111111111111111111000010 cyc
#3850
0clk
#3860
1clk
b11111111111111111111111111000011 cyc
#3870
0clk
#3880
1clk
b11111111111111111111111111000100 cyc
#3890
0clk
#3900
1clk
b11111111111111111111111111000101 cyc
#3910
0clk
#3920
1clk
b11111111111111111111111111000110 cyc
#3930
0clk
#3940
1clk
b11111111111111111111111111000111 cyc
#3950
0clk
#3960
1clk
b11111111111111111111111111001000 cyc
#3970
0clk
#3980
1clk
b11111111111111111111111111001001 cyc
#3990
0clk
#4000
1clk
b11111111111111111111111111001010 cyc
#4010
0clk
#4020
1clk
b11111111111111111111111111001011 cyc
#4030
0clk
#4040
1clk
b11111111111111111111111111001100 cyc
#4050
0clk
#4060
1clk
b11111111111111111111111111001101 cyc
#4070
0clk
#4080
1clk
b11111111111111111111111111001110 cyc
#4090
0clk
#4100
1clk
b11111111111111111111111111001111 cyc
#4110
0clk
#4120
1clk
b11111111111111111111111111010000 cyc
#4130
0clk
#4140
1clk
b11111111111111111111111111010001 cyc
#4150
0clk
#4160
1clk
b11111111111111111111111111010010 cyc
#4170
0clk
#4180
1clk
b11111111111111111111111111010011 cyc
#4190
0clk
#4200
1clk
b11111111111111111111111111010100 cyc
#4210
0clk
#4220
1clk
b11111111111111111111111111010101 cyc
#4230
0clk
#4240
1clk
b11111111111111111111111111010110 cyc
#4250
0clk
#4260
1clk
b11111111111111111111111111010111 cyc
#4270
0clk
#4280
1clk
b11111111111111111111111111011000 cyc
#4290
0clk
#4300
1clk
b11111111111111111111111111011001 cyc
#4310
0clk
#4320
1clk
b11111111111111111111111111011010 cyc
#4330
0clk
#4340
1clk
b11111111111111111111111111011011 cyc
#4350
0clk
#4360
1clk
b11111111111111111111111111011100 cyc
#4370
0clk
#4380
1clk
b11111111111111111111111111011101 cyc
#4390
0clk
#4400
1clk
b11111111111111111111111111011110 cyc
#4410
0clk
#4420
1clk
b11111111111111111111111111011111 cyc
#4430
0clk
#4440
1clk
b11111111111111111111111111100000 cyc
#4450
0clk
#4460
1clk
b11111111111111111111111111100001 cyc
#4470
0clk
#4480
1clk
b11111111111111111111111111100010 cyc
#4490
0clk
#4500
1clk
b11111111111111111111111111100011 cyc
#4510
0clk
#4520
1clk
b11111111111111111111111111100100 cyc
#4530
0clk
#4540
1clk
b11111111111111111111111111100101 cyc
#4550
0clk
#4560
1clk
b11111111111111111111111111100110 cyc
#4570
0clk
#4580
1clk
b11111111111111111111111111100111 cyc
#4590
0clk
#4600
1clk
b11111111111111111111111111101000 cyc
#4610
0clk
#4620
1clk
b11111111111111111111111111101001 cyc
#4630
0clk
#4640
1clk
b11111111111111111111111111101010 cyc
#4650
0clk
#4660
1clk
b11111111111111111111111111101011 cyc
#4670
0clk
#4680
1clk
b11111111111111111111111111101100 cyc
#4690
0clk
#4700
1clk
b11111111111111111111111111101101 cyc
#4710
0clk
#4720
1clk
b11111111111111111111111111101110 cyc
#4730
0clk
#4740
1clk
b11111111111111111111111111101111 cyc
#4750
0clk
#4760
1clk
b11111111111111111111111111110000 cyc
#4770
0clk
#4780
1clk
b11111111111111111111111111110001 cyc
#4790
0clk
#4800
1clk
b11111111111111111111111111110010 cyc
#4810
0clk
#4820
1clk
b11111111111111111111111111110011 cyc
#4830
0clk
#4840
1clk
b11111111111111111111111111110100 cyc
#4850
0clk
#4860
1clk
b11111111111111111111111111110101 cyc
#4870
0clk
#4880
1clk
b11111111111111111111111111110110 cyc
#4890
0clk
#4900
1clk
b11111111111111111111111111110111 cyc
#4910
0clk
#4920
1clk
b11111111111111111111111111111000 cyc
#4930
0clk
#4940
1clk
b11111111111111111111111111111001 cyc
#4950
0clk
#4960
1clk
b11111111111111111111111111111010 cyc
#4970
0clk
#4980
1clk
b11111111111111111111111111111011 cyc
#4990
0clk
#5000
1clk
b11111111111111111111111111111100 cyc
#5010
0clk
#5020
1clk
b11111111111111111111111111111101 cyc
#5030
0clk
#5040
1clk
b11111111111111111111111111111110 cyc
#5050
0clk
#5060
1clk
b11111111111111111111111111111111 cyc
#5070
0clk
#5080
1clk
b00000000000000000000000000000000 cyc
#5090
0clk
#5100
1clk
b00000000000000000000000000000001 cyc
#5110
0clk
#5120
1clk
b00000000000000000000000000000010 cyc
#5130
0clk
#5140
1clk
b00000000000000000000000000000011 cyc
#5150
0clk
#5160
1clk
b00000000000000000000000000000100 cyc
#5170
0clk
#5180
1clk
b00000000000000000000000000000101 cyc
#5190
0clk
#5200
1clk
b00000000000000000000000000000110 cyc
#5210
0clk
#5220
1clk
b00000000000000000000000000000111 cyc
#5230
0clk
#5240
1clk
b00000000000000000000000000001000 cyc
#5250
0clk
#5260
1clk
b00000000000000000000000000001001 cyc
#5270
0clk
#5280
1clk
b00000000000000000000000000001010 cyc
#5290
0clk
#5300
1clk
b00000000000000000000000000001011 cyc
#5310
0clk
#5320
1clk
b00000000000000000000000000001100 cyc
#5330
0clk
#5340
1clk
b00000000000000000000000000001101 cyc
#5350
0clk
#5360
1clk
b00000000000000000000000000001110 cyc
#5370
0clk
#5380
1clk
b00000000000000000000000000001111 cyc
#5390
0clk
#5400
1clk
b00000000000000000000000000010000 cyc
#5410
0clk
#5420
1clk
b00000000000000000000000000010001 cyc
#5430
0clk
#5440
1clk
b00000000000000000000000000010010 cyc
#5450
0clk
#5460
1clk
b00000000000000000000000000010011 cyc
#5470
0clk
#5480
1clk
b00000000000000000000000000010100 cyc
#5490
0clk
#5500
1clk
b00000000000000000000000000010101 cyc
#5510
0clk
#5520
1clk
b00000000000000000000000000010110 cyc
#5530
0clk
#5540
1clk
b00000000000000000000000000010111 cyc
#5550
0clk
#5560
1clk
b00000000000000000000000000011000 cyc
#5570
0clk
#5580
1clk
b00000000000000000000000000011001 cyc
#5590
0clk
#5600
1clk
b00000000000000000000000000011010 cyc
#5610
0clk
#5620
1clk
b00000000000000000000000000011011 cyc
#5630
0clk
#5640
1clk
b00000000000000000000000000011100 cyc
#5650
0clk
#5660
1clk
b00000000000000000000000000011101 cyc
#5670
0clk
#5680
1clk
b00000000000000000000000000011110 cyc
#5690
0clk
#5700
1clk
b00000000000000000000000000011111 cyc
#5710
0clk
#5720
1clk
b00000000000000000000000000100000 cyc
#5730
0clk
#5740
1clk
b00000000000000000000000000100001 cyc
#5750
0clk
#5760
1clk
b00000000000000000000000000100010 cyc
#5770
0clk
#5780
1clk
b00000000000000000000000000100011 cyc
#5790
0clk
#5800
1clk
b00000000000000000000000000100100 cyc
#5810
0clk
#5820
1clk
b00000000000000000000000000100101 cyc
#5830
0clk
#5840
1clk
b00000000000000000000000000100110 cyc
#5850
0clk
#5860
1clk
b00000000000000000000000000100111 cyc
#5870
0clk
#5880
1clk
b00000000000000000000000000101000 cyc
#5890
0clk
#5900
1clk
b00000000000000000000000000101001 cyc
#5910
0clk
#5920
1clk
b00000000000000000000000000101010 cyc
#5930
0clk
#5940
1clk
b00000000000000000000000000101011 cyc
#5950
0clk
#5960
1clk
b00000000000000000000000000101100 cyc
#5970
0clk
#5980
1clk
b00000000000000000000000000101101 cyc
#5990
0clk
#6000
1clk
b00000000000000000000000000101110 cyc
#6010
0clk
#6020
1clk
b00000000000000000000000000101111 cyc
#6030
0clk
#6040
1clk
b00000000000000000000000000110000 cyc
#6050
0clk
#6060
1clk
b00000000000000000000000000110001 cyc
#6070
0clk
#6080
1clk
b00000000000000000000000000110010 cyc
#6090
0clk
#6100
1clk
b00000000000000000000000000110011 cyc
#6110
0clk
#6120
1clk
b00000000000000000000000000110100 cyc
#6130
0clk
#6140
1clk
b00000000000000000000000000110101 cyc
#6150
0clk
#6160
1clk
b00000000000000000000000000110110 cyc
#6170
0clk
#6180
1clk
b00000000000000000000000000110111 cyc
#6190
0clk
#6200
1clk
b00000000000000000000000000111000 cyc
#6210
0clk
#6220
1clk
b00000000000000000000000000111001 cyc
#6230
0clk
#6240
1clk
b00000000000000000000000000111010 cyc
#6250
0clk
#6260
1clk
b00000000000000000000000000111011 cyc
#6270
0clk
#6280
1clk
b00000000000000000000000000111100 cyc
#6290
0clk
#6300
1clk
b00000000000000000000000000111101 cyc
#6310
0clk
#6320
1clk
b00000000000000000000000000111110 cyc
#6330
0clk
#6340
1clk
b00000000000000000000000000111111 cyc
#6350
0clk
#6360
1clk
b00000000000000000000000001000000 cyc
#6370
0clk
#6380
1clk
b00000000000000000000000001000001 cyc
#6390
0clk
#6400
1clk
b00000000000000000000000001000010 cyc
#6410
0clk
#6420
1clk
b00000000000000000000000001000011 cyc
#6430
0clk
#6440
1clk
b00000000000000000000000001000100 cyc
#6450
0clk
#6460
1clk
b00000000000000000000000001000101 cyc
#6470
0clk
#6480
1clk
b00000000000000000000000001000110 cyc
#6490
0clk
#6500
1clk
b00000000000000000000000001000111 cyc
#6510
0clk
#6520
1clk
b00000000000000000000000001001000 cyc
#6530
0clk
#6540
1clk
b00000000000000000000000001001001 cyc
#6550
0clk
#6560
1clk
b00000000000000000000000001001010 cyc
#6570
0clk
#6580
1clk
b00000000000000000000000001001011 cyc
#6590
0clk
#6600
1clk
b00000000000000000000000001001100 cyc
#6610
0clk
#6620
1clk
b00000000000000000000000001001101 cyc
#6630
0clk
#6640
1clk
b00000000000000000000000001001110 cyc
#6650
0clk
#6660
1clk
b00000000000000000000000001001111 cyc
#6670
0clk
#6680
1clk
b00000000000000000000000001010000 cyc
#6690
0clk
#6700
1clk
b00000000000000000000000001010001 cyc
#6710
0clk
#6720
1clk
b00000000000000000000000001010010 cyc
#6730
0clk
#6740
1clk
b00000000000000000000000001010011 cyc
#6750
0clk
#6760
1clk
b00000000000000000000000001010100 cyc
#6770
0clk
#6780
1clk
b00000000000000000000000001010101 cyc
#6790
0clk
#6800
1clk
b00000000000000000000000001010110 cyc
#6810
0clk
#6820
1clk
b00000000000000000000000001010111 cyc
#6830
0clk
#6840
1clk
b00000000000000000000000001011000 cyc
#6850
0clk
#6860
1clk
b00000000000000000000000001011001 cyc
#6870
0clk
#6880
1clk
b00000000000000000000000001011010 cyc
#6890
0clk
#6900
1clk
b00000000000000000000000001011011 cyc
#6910
0clk
#6920
1clk
b00000000000000000000000001011100 cyc
#6930
0clk
#6940
1clk
b00000000000000000000000001011101 cyc
#6950
0clk
#6960
1clk
b00000000000000000000000001011110 cyc
#6970
0clk
#6980
1clk
b00000000000000000000000001011111 cyc
#6990
0clk
#7000
1clk
b00000000000000000000000001100000 cyc
#7010
0clk
#7020
1clk
b00000000000000000000000001100001 cyc
#7030
0clk
#7040
1clk
b00000000000000000000000001100010 cyc
#7050
0clk
#7060
1clk
b00000000000000000000000001100011 cyc
#7070
0clk
#7080
1clk
b00000000000000000000000001100100 cyc
#7090
0clk
#7100
1clk
b00000000000000000000000001100101 cyc
#7110
0clk
#7120
1clk
b00000000000000000000000001100110 cyc
#7130
0clk
#7140
1clk
b00000000000000000000000001100111 cyc
#7150
0clk
#7160
1clk
b00000000000000000000000001101000 cyc
#7170
0clk
#7180
1clk
b00000000000000000000000001101001 cyc
#7190
0clk
#7200
1clk
b00000000000000000000000001101010 cyc
#7210
0clk
#7220
1clk
b00000000000000000000000001101011 cyc
#7230
0clk
#7240
1clk
b00000000000000000000000001101100 cyc
#7250
0clk
#7260
1clk
b00000000000000000000000001101101 cyc
#7270
0clk
#7280
1clk
b00000000000000000000000001101110 cyc
#7290
0clk
#7300
1clk
b00000000000000000000000001101111 cyc
#7310
0clk
#7320
1clk
b00000000000000000000000001110000 cyc
#7330
0clk
#7340
1clk
b00000000000000000000000001110001 cyc
#7350
0clk
#7360
1clk
b00000000000000000000000001110010 cyc
#7370
0clk
#7380
1clk
b00000000000000000000000001110011 cyc
#7390
0clk
#7400
1clk
b00000000000000000000000001110100 cyc
#7410
0clk
#7420
1clk
b00000000000000000000000001110101 cyc
#7430
0clk
#7440
1clk
b00000000000000000000000001110110 cyc
#7450
0clk
#7460
1clk
b00000000000000000000000001110111 cyc
#7470
0clk
#7480
1clk
b00000000000000000000000001111000 cyc
#7490
0clk
#7500
1clk
b00000000000000000000000001111001 cyc
#7510
0clk
#7520
1clk
b00000000000000000000000001111010 cyc
#7530
0clk
#7540
1clk
b00000000000000000000000001111011 cyc
#7550
0clk
#7560
1clk
b00000000000000000000000001111100 cyc
#7570
0clk
#7580
1clk
b00000000000000000000000001111101 cyc
#7590
0clk
#7600
1clk
b00000000000000000000000001111110 cyc
#7610
0clk
#7620
1clk
b00000000000000000000000001111111 cyc
#7630
0clk
#7640
1clk
b00000000000000000000000010000000 cyc
#7650
0clk
#7660
1clk
b00000000000000000000000010000001 cyc
#7670
0clk
#7680
1clk
b00000000000000000000000010000010 cyc
#7690
0clk
#7700
1clk
b00000000000000000000000010000011 cyc
#7710
0clk
#7720
1clk
b00000000000000000000000010000100 cyc
#7730
0clk
#7740
1clk
b00000000000000000000000010000101 cyc
#7750
0clk
#7760
1clk
b00000000000000000000000010000110 cyc
#7770
0clk
#7780
1clk
b00000000000000000000000010000111 cyc
#7790
0clk
#7800
1clk
b00000000000000000000000010001000 cyc
#7810
0clk
#7820
1clk
b00000000000000000000000010001001 cyc
#7830
0clk
#7840
1clk
b00000000000000000000000010001010 cyc
#7850
0clk
#7860
1clk
b00000000000000000000000010001011 cyc
#7870
0clk
#7880
1clk
b00000000000000000000000010001100 cyc
#7890
0clk
#7900
1clk
b00000000000000000000000010001101 cyc
#7910
0clk
#7920
1clk
b00000000000000000000000010001110 cyc
#7930
0clk
#7940
1clk
b00000000000000000000000010001111 cyc
#7950
0clk
#7960
1clk
b00000000000000000000000010010000 cyc
#7970
0clk
#7980
1clk
b00000000000000000000000010010001 cyc
#7990
0clk
#8000
1clk
b00000000000000000000000010010010 cyc
#8010
0clk
#8020
1clk
b00000000000000000000000010010011 cyc
#8030
0clk
#8040
1clk
b00000000000000000000000010010100 cyc
#8050
0clk
#8060
1clk
b00000000000000000000000010010101 cyc
#8070
0clk
#8080
1clk
b00000000000000000000000010010110 cyc
#8090
0clk
#8100
1clk
b00000000000000000000000010010111 cyc
#8110
0clk
#8120
1clk
b00000000000000000000000010011000 cyc
#8130
0clk
#8140
1clk
b00000000000000000000000010011001 cyc
#8150
0clk
#8160
1clk
b00000000000000000000000010011010 cyc
#8170
0clk
#8180
1clk
b00000000000000000000000010011011 cyc
#8190
0clk
#8200
1clk
b00000000000000000000000010011100 cyc
#8210
0clk
#8220
1clk
b00000000000000000000000010011101 cyc
#8230
0clk
#8240
1clk
b00000000000000000000000010011110 cyc
#8250
0clk
#8260
1clk
b00000000000000000000000010011111 cyc
#8270
0clk
#8280
1clk
b00000000000000000000000010100000 cyc
#8290
0clk
#8300
1clk
b00000000000000000000000010100001 cyc
#8310
0clk
#8320
1clk
b00000000000000000000000010100010 cyc
#8330
0clk
#8340
1clk
b00000000000000000000000010100011 cyc
#8350
0clk
#8360
1clk
b00000000000000000000000010100100 cyc
#8370
0clk
#8380
1clk
b00000000000000000000000010100101 cyc
#8390
0clk
#8400
1clk
b00000000000000000000000010100110 cyc
#8410
0clk
#8420
1clk
b00000000000000000000000010100111 cyc
#8430
0clk
#8440
1clk
b00000000000000000000000010101000 cyc
#8450
0clk
#8460
1clk
b00000000000000000000000010101001 cyc
#8470
0clk
#8480
1clk
b00000000000000000000000010101010 cyc
#8490
0clk
#8500
1clk
b00000000000000000000000010101011 cyc
#8510
0clk
#8520
1clk
b00000000000000000000000010101100 cyc
#8530
0clk
#8540
1clk
b00000000000000000000000010101101 cyc
#8550
0clk
#8560
1clk
b00000000000000000000000010101110 cyc
#8570
0clk
#8580
1clk
b00000000000000000000000010101111 cyc
#8590
0clk
#8600
1clk
b00000000000000000000000010110000 cyc
#8610
0clk
#8620
1clk
b00000000000000000000000010110001 cyc
#8630
0clk
#8640
1clk
b00000000000000000000000010110010 cyc
#8650
0clk
#8660
1clk
b00000000000000000000000010110011 cyc
#8670
0clk
#8680
1clk
b00000000000000000000000010110100 cyc
#8690
0clk
#8700
1clk
b00000000000000000000000010110101 cyc
#8710
0clk
#8720
1clk
b00000000000000000000000010110110 cyc
#8730
0clk
#8740
1clk
b00000000000000000000000010110111 cyc
#8750
0clk
#8760
1clk
b00000000000000000000000010111000 cyc
#8770
0clk
#8780
1clk
b00000000000000000000000010111001 cyc
#8790
0clk
#8800
1clk
b00000000000000000000000010111010 cyc
#8810
0clk
#8820
1clk
b00000000000000000000000010111011 cyc
#8830
0clk
#8840
1clk
b00000000000000000000000010111100 cyc
#8850
0clk
#8860
1clk
b00000000000000000000000010111101 cyc
#8870
0clk
#8880
1clk
b00000000000000000000000010111110 cyc
#8890
0clk
#8900
1clk
b00000000000000000000000010111111 cyc
#8910
0clk
#8920
1clk
b00000000000000000000000011000000 cyc
#8930
0clk
#8940
1clk
b00000000000000000000000011000001 cyc
#8950
0clk
#8960
1clk
b00000000000000000000000011000010 cyc
#8970
0clk
#8980
1clk
b00000000000000000000000011000011 cyc
