MPFS_Fabric_access/LED_Blinker_Logic_Analyzer/synthesis/Hanshaking_Test/output_led.vcd
$date
Thu Jul 25 10:26:21 2024
$end
$version
Identify 1.1
$end
$timescale
1 ns
$end
$comment
Written by QT debugger
$end
$scope module top $end
$var integer 32 cyc identify_cycle       $end
$var reg     1  clk identify_sampleclock $end
$var reg 1 A outBit4 $end
$var reg 2 B inSwitch [1:0] $end
$var reg 1 C clk $end
$var reg 1 D outBit2 $end
$var reg 1 E outBit3 $end
$var reg 1 F readyAXI $end
$var reg 1 G outBit1 $end
$var reg 2 H dataAXI [1:0] $end
$upscope $end
$enddefinitions $end
#0
1clk
b11111111111111111111111111111100 cyc
xA
bxx B
xC
xD
xE
xF
xG
bxx H
#10
0clk
#20
1clk
b11111111111111111111111111111101 cyc
#30
0clk
#40
1clk
b11111111111111111111111111111110 cyc
#50
0clk
#60
1clk
b11111111111111111111111111111111 cyc
#70
0clk
#80
1clk
b00000000000000000000000000000000 cyc
#90
0clk
#100
1clk
b00000000000000000000000000000001 cyc
#110
0clk
#120
1clk
b00000000000000000000000000000010 cyc
#130
0clk
#140
1clk
b00000000000000000000000000000011 cyc
#150
0clk
#160
1clk
b00000000000000000000000000000100 cyc
#170
0clk
#180
1clk
b00000000000000000000000000000101 cyc
#190
0clk
#200
1clk
b00000000000000000000000000000110 cyc
#210
0clk
#220
1clk
b00000000000000000000000000000111 cyc
#230
0clk
#240
1clk
b00000000000000000000000000001000 cyc
#250
0clk
#260
1clk
b00000000000000000000000000001001 cyc
#270
0clk
#280
1clk
b00000000000000000000000000001010 cyc
#290
0clk
#300
1clk
b00000000000000000000000000001011 cyc
#310
0clk
#320
1clk
b00000000000000000000000000001100 cyc
#330
0clk
#340
1clk
b00000000000000000000000000001101 cyc
#350
0clk
#360
1clk
b00000000000000000000000000001110 cyc
#370
0clk
#380
1clk
b00000000000000000000000000001111 cyc
#390
0clk
#400
1clk
b00000000000000000000000000010000 cyc
#410
0clk
#420
1clk
b00000000000000000000000000010001 cyc
#430
0clk
#440
1clk
b00000000000000000000000000010010 cyc
#450
0clk
#460
1clk
b00000000000000000000000000010011 cyc
#470
0clk
#480
1clk
b00000000000000000000000000010100 cyc
#490
0clk
#500
1clk
b00000000000000000000000000010101 cyc
#510
0clk
#520
1clk
b00000000000000000000000000010110 cyc
#530
0clk
#540
1clk
b00000000000000000000000000010111 cyc
#550
0clk
#560
1clk
b00000000000000000000000000011000 cyc
#570
0clk
#580
1clk
b00000000000000000000000000011001 cyc
